{
  "projects":"PROJECTS",
  "biography":"BIOGRAPHY",
  "anselmiHouse":"ANSELMI HOUSE",
  "contact":"CONTACT US",
  "radio":"RADIO",
  "phone":"PHONE.:",
  "contact":"CONTACT",
  "typology": "TYPOLOGY",
  "datas": "DATAS",
  "list": "LIST",
  "email": "Email",
  "subject": "Subject",
  "message": "Message",
  "send": "Send",
  "name": "Name",
  "technicalDescription":"Techinal Description",
  "area": "Area: ",
  "project": "Project Architecture and Interior Design: ",
  "collaborators": "Collaborators and Site Supervision: ",
  "furniture": "Cocinas, Closet y Mobiliario Baños: ",
  "accessories": "Mobiliario y Accesorios: ",
  "lighting": "Iluminación: ",
  "floors": "Pisos de Madera: ",
  "steel": "Acero Inoxidable: ",
  "metallicStructures": "Herrería y Estructuras Metálicas: ",
  "bathroom": "Piezas y Accesorios de Baño: ",
  "bathroomsCoatings": "Revestimientos Baños: ",
  "doors": "Puertas de Baño y Cerramientos de Vidrio: ",
  "artworks": "Obras de Arte: ",
  "location":"Location: "
}
