{
  "projects":"PROYECTOS",
  "biography":"BIOGRAFIA",
  "anselmiHouse":"CASA ANSELMI",
  "contact":"CONTACTO",
  "radio":"RADIO",
  "phone":"TEL.:",
  "contact":"CONTACTO",
  "typology": "TIPOLOGÍA",
  "datas": "DATAS",
  "list": "LISTA",
  "email": "Email",
  "subject": "Asunto",
  "message": "Mensaje",
  "send": "Enviar",
  "name": "Nombre",
  "technicalDescription":"Ficha Técnica",
  "area": "Área: ",
  "project": "Proyecto de Arquitectura y Diseño Interior: ",
  "collaborators": "Colaboradores y Supervisión de Obra: ",
  "furniture": "Cocinas, Closet y Mobiliario Baños: ",
  "accessories": "Mobiliario y Accesorios: ",
  "lighting": "Iluminación: ",
  "floors": "Pisos de Madera: ",
  "steel": "Acero Inoxidable: ",
  "metallicStructures": "Herrería y Estructuras Metálicas: ",
  "bathroom": "Piezas y Accesorios de Baño: ",
  "bathroomsCoatings": "Revestimientos Baños: ",
  "doors": "Puertas de Baño y Cerramientos de Vidrio: ",
  "artworks": "Obras de Arte: ",
  "location":"Ubicación: "
}
